// Jest Snapshot v1, https://goo.gl/fbAQLP

exports[`Page Should render component with component children 1`] = `
<div
  className="Page"
>
  <Component />
  <div
    className="Page-Content"
  >
    <div>
      App
    </div>
  </div>
</div>
`;

exports[`Page Should render component with text children 1`] = `
<div
  className="Page"
>
  <Component />
  <div
    className="Page-Content"
  >
    App
  </div>
</div>
`;
