// Jest Snapshot v1, https://goo.gl/fbAQLP

exports[`RecipeCard Should render component 1`] = `
<a
  href="/kamtim/recipe/100"
>
  <Card
    className="RecipeCard"
    cover={
      <img
        alt="example"
        src="https://spoonacular.com/recipeImages/654812-556x370.jpg"
      />
    }
    hoverable={true}
  >
    <Meta
      title="cool recipe"
    />
  </Card>
</a>
`;
