// Jest Snapshot v1, https://goo.gl/fbAQLP

exports[`RecipesPage Should render component recipes and options 1`] = `
<div
  className="RecipesPage"
>
  <Component
    chosenIngredients={
      Array [
        "apple",
      ]
    }
    ingredientValue="appl"
    ingredientsOptions={
      Array [
        "apple",
        "apple jelli",
      ]
    }
    onSelect={[MockFunction]}
    options={
      Array [
        Object {
          "label": "pizza",
          "value": 45678,
        },
        Object {
          "label": "pizza with cucumber",
          "value": 45678,
        },
      ]
    }
  />
  <Component
    recipes={
      Array [
        Object {
          "id": 1,
          "image": "https://spoonacular.com/recipeImages/654812-556x370.jpg",
          "imageType": "jpg",
          "title": "Cool recipe 1",
        },
        Object {
          "id": 2,
          "image": "https://spoonacular.com/recipeImages/654812-556x370.jpg",
          "imageType": "jpg",
          "title": "Cool recipe 2",
        },
        Object {
          "id": 3,
          "image": "https://spoonacular.com/recipeImages/654812-556x370.jpg",
          "imageType": "jpg",
          "title": "Cool recipe 3",
        },
      ]
    }
  />
</div>
`;

exports[`RecipesPage Should render component when recipes loading 1`] = `
<div
  className="RecipesPage"
>
  <Component
    chosenIngredients={
      Array [
        "apple",
      ]
    }
    ingredientValue="appl"
    ingredientsOptions={
      Array [
        "apple",
        "apple jelli",
      ]
    }
    onSelect={[MockFunction]}
    options={
      Array [
        Object {
          "label": "pizza",
          "value": 45678,
        },
        Object {
          "label": "pizza with cucumber",
          "value": 45678,
        },
      ]
    }
  />
  <Spin
    className="RecipesPage-Spin"
    size="default"
    spinning={true}
    tip="Loading..."
    wrapperClassName=""
  />
</div>
`;

exports[`RecipesPage Should render component with empty recipes 1`] = `
<div
  className="RecipesPage"
>
  <Component
    chosenIngredients={Array []}
  />
  <Component
    recipes={Array []}
  />
</div>
`;
